Replication of Study 3 by Kwan, Dai & Wyer,JR (2017, Journal of Consumer Research)
…
# For empty condition, calculate the mean importance, favorability and response time for each person and store in a new dataframe
mean_df_empty <- df_grouped_empty %>%
  group_by(group) %>%
  summarise(
    mean_importance = mean(importance),
    mean_likability = mean(likability),
    mean_rt = mean(rt)
  )

# View the result
print(mean_df_empty)

# A tibble: 35 × 4
   group mean_importance mean_likability mean_rt
   <dbl>           <dbl>           <dbl>   <dbl>
 1     1             4.6             4.5  13631.
 2     2             3.1             3.1   2860.
 3     3             3.9             3.2  15902 
 4     4             3.7             2.8  10034 
 5     5             3.1             3     2763 
 6     6             3               3     2702.
 7     7             1.6             1.6  11895.
 8     8             4.7             4.9  39493 
 9     9             6               6     8016.
10    10             4.3             4.6  16052.
# ℹ 25 more rows
…
# For limited condition, calculate the mean importance, favorability and response time for each person and store in a new dataframe

mean_df_limited <- df_grouped_limited %>%
  group_by(group) %>%
  summarise(
    mean_importance = mean(importance),
    mean_likability = mean(likability),
    mean_rt = mean(rt)
  )

# View the result
print(mean_df_limited)

# A tibble: 51 × 4
   group mean_importance mean_likability mean_rt
   <dbl>           <dbl>           <dbl>   <dbl>
 1     1             4.4             3.4  19051.
 2     2             5.2             5.6  10964 
 3     3             4.9             4.4   7114.
 4     4             5.6             5.9   9018.
 5     5             1.4             2     7551.
 6     6             6               6     8992.
 7     7             5.4             5.5  31326.
 8     8             5.1             4.8  12340.
 9     9             4.5             4.1   2410.
10    10             6               6     5096.
# ℹ 41 more rows
…
